PWD /home/daniel/Documents/TFG PARTE ESCRITA/a-cloud-iot-ovitrap-system-monografia/monografia
INPUT /etc/texmf/web2c/texmf.cnf
INPUT /usr/share/texmf/web2c/texmf.cnf
INPUT /usr/share/texlive/texmf-dist/web2c/texmf.cnf
INPUT /var/lib/texmf/web2c/pdftex/pdflatex.fmt
INPUT /home/daniel/Documents/TFG PARTE ESCRITA/a-cloud-iot-ovitrap-system-monografia/monografia/monografia.tex
OUTPUT /home/daniel/Documents/TFG PARTE ESCRITA/a-cloud-iot-ovitrap-system-monografia/monografia/monografia.log
INPUT /usr/share/texlive/texmf-dist/tex/latex/abntex2/abntex2.cls
INPUT /usr/share/texlive/texmf-dist/tex/latex/abntex2/abntex2.cls
INPUT /usr/share/texlive/texmf-dist/tex/latex/base/ifthen.sty
INPUT /usr/share/texlive/texmf-dist/tex/latex/base/ifthen.sty
INPUT /usr/share/texlive/texmf-dist/tex/latex/memoir/memoir.cls
INPUT /usr/share/texlive/texmf-dist/tex/latex/memoir/memoir.cls
INPUT /usr/share/texlive/texmf-dist/tex/generic/oberdiek/ifpdf.sty
INPUT /usr/share/texlive/texmf-dist/tex/generic/oberdiek/ifpdf.sty
INPUT /usr/share/texlive/texmf-dist/tex/generic/oberdiek/ifpdf.sty
INPUT /usr/share/texlive/texmf-dist/tex/latex/ifetex/ifetex.sty
INPUT /usr/share/texlive/texmf-dist/tex/latex/ifetex/ifetex.sty
INPUT /usr/share/texlive/texmf-dist/tex/latex/ifetex/ifetex.sty
INPUT /usr/share/texlive/texmf-dist/tex/plain/ifetex/ifetex.tex
INPUT /usr/share/texlive/texmf-dist/tex/generic/ifxetex/ifxetex.sty
INPUT /usr/share/texlive/texmf-dist/tex/generic/ifxetex/ifxetex.sty
INPUT /usr/share/texlive/texmf-dist/tex/generic/ifxetex/ifxetex.sty
INPUT /usr/share/texlive/texmf-dist/tex/generic/oberdiek/ifluatex.sty
INPUT /usr/share/texlive/texmf-dist/tex/generic/oberdiek/ifluatex.sty
INPUT /usr/share/texlive/texmf-dist/tex/generic/oberdiek/ifluatex.sty
INPUT /usr/share/texlive/texmf-dist/tex/latex/memoir/mem12.clo
INPUT /usr/share/texlive/texmf-dist/tex/latex/memoir/mem12.clo
INPUT /usr/share/texlive/texmf-dist/fonts/map/fontname/texfonts.map
INPUT /usr/share/texlive/texmf-dist/fonts/tfm/public/cm/cmr12.tfm
INPUT /usr/share/texlive/texmf-dist/fonts/tfm/public/cm/cmr10.tfm
INPUT /usr/share/texlive/texmf-dist/tex/latex/memoir/mempatch.sty
INPUT /usr/share/texlive/texmf-dist/tex/latex/memoir/mempatch.sty
INPUT /usr/share/texlive/texmf-dist/tex/latex/memoir/mempatch.sty
INPUT /usr/share/texlive/texmf-dist/tex/latex/textcase/textcase.sty
INPUT /usr/share/texlive/texmf-dist/tex/latex/textcase/textcase.sty
INPUT /usr/share/texlive/texmf-dist/tex/latex/hyperref/hyperref.sty
INPUT /usr/share/texlive/texmf-dist/tex/latex/hyperref/hyperref.sty
INPUT /usr/share/texlive/texmf-dist/tex/generic/oberdiek/hobsub-hyperref.sty
INPUT /usr/share/texlive/texmf-dist/tex/generic/oberdiek/hobsub-hyperref.sty
INPUT /usr/share/texlive/texmf-dist/tex/generic/oberdiek/hobsub-hyperref.sty
INPUT /usr/share/texlive/texmf-dist/tex/generic/oberdiek/hobsub-generic.sty
INPUT /usr/share/texlive/texmf-dist/tex/generic/oberdiek/hobsub-generic.sty
INPUT /usr/share/texlive/texmf-dist/tex/latex/graphics/keyval.sty
INPUT /usr/share/texlive/texmf-dist/tex/latex/graphics/keyval.sty
INPUT /usr/share/texlive/texmf-dist/tex/latex/oberdiek/auxhook.sty
INPUT /usr/share/texlive/texmf-dist/tex/latex/oberdiek/auxhook.sty
INPUT /usr/share/texlive/texmf-dist/tex/latex/oberdiek/kvoptions.sty
INPUT /usr/share/texlive/texmf-dist/tex/latex/oberdiek/kvoptions.sty
INPUT /usr/share/texlive/texmf-dist/tex/latex/hyperref/pd1enc.def
INPUT /usr/share/texlive/texmf-dist/tex/latex/hyperref/pd1enc.def
INPUT /usr/share/texlive/texmf-dist/tex/latex/latexconfig/hyperref.cfg
INPUT /usr/share/texlive/texmf-dist/tex/latex/latexconfig/hyperref.cfg
INPUT /usr/share/texlive/texmf-dist/tex/latex/url/url.sty
INPUT /usr/share/texlive/texmf-dist/tex/latex/url/url.sty
INPUT /usr/share/texlive/texmf-dist/tex/latex/memoir/memhfixc.sty
INPUT /usr/share/texlive/texmf-dist/tex/latex/memoir/memhfixc.sty
INPUT /usr/share/texlive/texmf-dist/tex/latex/hyperref/hpdftex.def
INPUT /usr/share/texlive/texmf-dist/tex/latex/hyperref/hpdftex.def
INPUT /usr/share/texlive/texmf-dist/tex/latex/oberdiek/rerunfilecheck.sty
INPUT /usr/share/texlive/texmf-dist/tex/latex/oberdiek/rerunfilecheck.sty
INPUT /usr/share/texlive/texmf-dist/tex/latex/oberdiek/bookmark.sty
INPUT /usr/share/texlive/texmf-dist/tex/latex/oberdiek/bookmark.sty
INPUT /usr/share/texlive/texmf-dist/tex/latex/oberdiek/bkm-pdftex.def
INPUT /usr/share/texlive/texmf-dist/tex/latex/oberdiek/bkm-pdftex.def
INPUT /usr/share/texlive/texmf-dist/tex/generic/babel/babel.sty
INPUT /usr/share/texlive/texmf-dist/tex/generic/babel/babel.sty
INPUT /usr/share/texlive/texmf-dist/tex/generic/babel/switch.def
INPUT /usr/share/texlive/texmf-dist/tex/generic/babel-english/english.ldf
INPUT /usr/share/texlive/texmf-dist/tex/generic/babel-english/english.ldf
INPUT /usr/share/texlive/texmf-dist/tex/generic/babel-english/english.ldf
INPUT /usr/share/texlive/texmf-dist/tex/generic/babel/babel.def
INPUT /usr/share/texlive/texmf-dist/tex/generic/babel/txtbabel.def
INPUT /usr/share/texlive/texmf-dist/tex/generic/babel-portuges/portuges.ldf
INPUT /usr/share/texlive/texmf-dist/tex/generic/babel-portuges/portuges.ldf
INPUT /usr/share/texlive/texmf-dist/tex/latex/enumitem/enumitem.sty
INPUT /usr/share/texlive/texmf-dist/tex/latex/enumitem/enumitem.sty
INPUT /usr/share/texlive/texmf-dist/tex/latex/tools/calc.sty
INPUT /usr/share/texlive/texmf-dist/tex/latex/tools/calc.sty
INPUT /usr/share/texmf/tex/latex/tex-gyre/tgtermes.sty
INPUT /usr/share/texmf/tex/latex/tex-gyre/tgtermes.sty
INPUT /usr/share/texlive/texmf-dist/tex/latex/base/fontenc.sty
INPUT /usr/share/texlive/texmf-dist/tex/latex/base/fontenc.sty
INPUT /usr/share/texlive/texmf-dist/tex/latex/base/t1enc.def
INPUT /usr/share/texlive/texmf-dist/tex/latex/base/t1enc.def
INPUT /usr/share/texmf/tex/latex/tex-gyre/t1qtm.fd
INPUT /usr/share/texmf/tex/latex/tex-gyre/t1qtm.fd
INPUT /usr/share/texmf/fonts/tfm/public/tex-gyre/ec-qtmr.tfm
INPUT /usr/share/texlive/texmf-dist/tex/latex/base/inputenc.sty
INPUT /usr/share/texlive/texmf-dist/tex/latex/base/inputenc.sty
INPUT /usr/share/texlive/texmf-dist/tex/latex/base/utf8.def
INPUT /usr/share/texlive/texmf-dist/tex/latex/base/utf8.def
INPUT /usr/share/texlive/texmf-dist/tex/latex/base/t1enc.dfu
INPUT /usr/share/texlive/texmf-dist/tex/latex/base/t1enc.dfu
INPUT /usr/share/texlive/texmf-dist/tex/latex/base/ot1enc.dfu
INPUT /usr/share/texlive/texmf-dist/tex/latex/base/ot1enc.dfu
INPUT /usr/share/texlive/texmf-dist/tex/latex/base/omsenc.dfu
INPUT /usr/share/texlive/texmf-dist/tex/latex/base/omsenc.dfu
INPUT /usr/share/texlive/texmf-dist/tex/latex/graphics/color.sty
INPUT /usr/share/texlive/texmf-dist/tex/latex/graphics/color.sty
INPUT /usr/share/texlive/texmf-dist/tex/latex/graphics-cfg/color.cfg
INPUT /usr/share/texlive/texmf-dist/tex/latex/graphics-cfg/color.cfg
INPUT /usr/share/texlive/texmf-dist/tex/latex/graphics-def/pdftex.def
INPUT /usr/share/texlive/texmf-dist/tex/latex/graphics-def/pdftex.def
INPUT /usr/share/texlive/texmf-dist/tex/latex/graphics/graphicx.sty
INPUT /usr/share/texlive/texmf-dist/tex/latex/graphics/graphicx.sty
INPUT /usr/share/texlive/texmf-dist/tex/latex/graphics/graphics.sty
INPUT /usr/share/texlive/texmf-dist/tex/latex/graphics/graphics.sty
INPUT /usr/share/texlive/texmf-dist/tex/latex/graphics/trig.sty
INPUT /usr/share/texlive/texmf-dist/tex/latex/graphics/trig.sty
INPUT /usr/share/texlive/texmf-dist/tex/latex/graphics-cfg/graphics.cfg
INPUT /usr/share/texlive/texmf-dist/tex/latex/graphics-cfg/graphics.cfg
INPUT /usr/share/texlive/texmf-dist/tex/latex/microtype/microtype.sty
INPUT /usr/share/texlive/texmf-dist/tex/latex/microtype/microtype.sty
INPUT /usr/share/texlive/texmf-dist/tex/latex/microtype/microtype-pdftex.def
INPUT /usr/share/texlive/texmf-dist/tex/latex/microtype/microtype-pdftex.def
INPUT /usr/share/texlive/texmf-dist/tex/latex/microtype/microtype.cfg
INPUT /usr/share/texlive/texmf-dist/tex/latex/microtype/microtype.cfg
INPUT /usr/share/texlive/texmf-dist/tex/latex/microtype/microtype.cfg
INPUT /usr/share/texlive/texmf-dist/tex/latex/multirow/multirow.sty
INPUT /usr/share/texlive/texmf-dist/tex/latex/multirow/multirow.sty
INPUT /usr/share/texlive/texmf-dist/tex/latex/xcolor/xcolor.sty
INPUT /usr/share/texlive/texmf-dist/tex/latex/xcolor/xcolor.sty
INPUT /usr/share/texlive/texmf-dist/tex/latex/graphics-cfg/color.cfg
INPUT /usr/share/texlive/texmf-dist/tex/latex/graphics-cfg/color.cfg
INPUT /usr/share/texlive/texmf-dist/tex/latex/colortbl/colortbl.sty
INPUT /usr/share/texlive/texmf-dist/tex/latex/colortbl/colortbl.sty
INPUT /usr/share/texlive/texmf-dist/tex/latex/listings/listings.sty
INPUT /usr/share/texlive/texmf-dist/tex/latex/listings/listings.sty
INPUT /usr/share/texlive/texmf-dist/tex/latex/listings/lstmisc.sty
INPUT /usr/share/texlive/texmf-dist/tex/latex/listings/lstmisc.sty
INPUT /usr/share/texlive/texmf-dist/tex/latex/listings/listings.cfg
INPUT /usr/share/texlive/texmf-dist/tex/latex/listings/listings.cfg
INPUT /usr/share/texlive/texmf-dist/tex/latex/subfig/subfig.sty
INPUT /usr/share/texlive/texmf-dist/tex/latex/subfig/subfig.sty
INPUT /usr/share/texlive/texmf-dist/tex/latex/caption/caption.sty
INPUT /usr/share/texlive/texmf-dist/tex/latex/caption/caption.sty
INPUT /usr/share/texlive/texmf-dist/tex/latex/caption/caption3.sty
INPUT /usr/share/texlive/texmf-dist/tex/latex/caption/caption3.sty
INPUT /usr/share/texlive/texmf-dist/tex/latex/pdfpages/pdfpages.sty
INPUT /usr/share/texlive/texmf-dist/tex/latex/pdfpages/pdfpages.sty
INPUT /usr/share/texlive/texmf-dist/tex/latex/eso-pic/eso-pic.sty
INPUT /usr/share/texlive/texmf-dist/tex/latex/eso-pic/eso-pic.sty
INPUT /usr/share/texlive/texmf-dist/tex/latex/pdfpages/pppdftex.def
INPUT /usr/share/texlive/texmf-dist/tex/latex/pdfpages/pppdftex.def
INPUT /usr/share/texlive/texmf-dist/tex/latex/oberdiek/pdflscape.sty
INPUT /usr/share/texlive/texmf-dist/tex/latex/oberdiek/pdflscape.sty
INPUT /usr/share/texlive/texmf-dist/tex/latex/graphics/lscape.sty
INPUT /usr/share/texlive/texmf-dist/tex/latex/graphics/lscape.sty
INPUT /usr/share/texlive/texmf-dist/tex/latex/tools/longtable.sty
INPUT /usr/share/texlive/texmf-dist/tex/latex/tools/longtable.sty
INPUT /usr/share/texlive/texmf-dist/tex/latex/float/float.sty
INPUT /usr/share/texlive/texmf-dist/tex/latex/float/float.sty
INPUT /usr/share/texlive/texmf-dist/tex/latex/adjustbox/adjustbox.sty
INPUT /usr/share/texlive/texmf-dist/tex/latex/adjustbox/adjustbox.sty
INPUT /usr/share/texlive/texmf-dist/tex/latex/xkeyval/xkeyval.sty
INPUT /usr/share/texlive/texmf-dist/tex/latex/xkeyval/xkeyval.sty
INPUT /usr/share/texlive/texmf-dist/tex/generic/xkeyval/xkeyval.tex
INPUT /usr/share/texlive/texmf-dist/tex/generic/xkeyval/xkvutils.tex
INPUT /usr/share/texlive/texmf-dist/tex/latex/adjustbox/adjcalc.sty
INPUT /usr/share/texlive/texmf-dist/tex/latex/adjustbox/adjcalc.sty
INPUT /usr/share/texlive/texmf-dist/tex/latex/adjustbox/trimclip.sty
INPUT /usr/share/texlive/texmf-dist/tex/latex/adjustbox/trimclip.sty
INPUT /usr/share/texlive/texmf-dist/tex/latex/collectbox/collectbox.sty
INPUT /usr/share/texlive/texmf-dist/tex/latex/collectbox/collectbox.sty
INPUT /usr/share/texlive/texmf-dist/tex/latex/adjustbox/tc-pdftex.def
INPUT /usr/share/texlive/texmf-dist/tex/latex/adjustbox/tc-pdftex.def
INPUT /usr/share/texlive/texmf-dist/tex/latex/ifoddpage/ifoddpage.sty
INPUT /usr/share/texlive/texmf-dist/tex/latex/ifoddpage/ifoddpage.sty
INPUT /usr/share/texlive/texmf-dist/tex/latex/ifoddpage/ifoddpage.sty
INPUT /usr/share/texlive/texmf-dist/tex/latex/varwidth/varwidth.sty
INPUT /usr/share/texlive/texmf-dist/tex/latex/varwidth/varwidth.sty
INPUT /usr/share/texlive/texmf-dist/tex/latex/varwidth/varwidth.sty
INPUT /usr/share/texlive/texmf-dist/tex/latex/amsfonts/amssymb.sty
INPUT /usr/share/texlive/texmf-dist/tex/latex/amsfonts/amssymb.sty
INPUT /usr/share/texlive/texmf-dist/tex/latex/amsfonts/amsfonts.sty
INPUT /usr/share/texlive/texmf-dist/tex/latex/amsfonts/amsfonts.sty
INPUT /usr/share/texlive/texmf-dist/tex/latex/psnfss/pifont.sty
INPUT /usr/share/texlive/texmf-dist/tex/latex/psnfss/pifont.sty
INPUT /usr/share/texlive/texmf-dist/tex/latex/psnfss/upzd.fd
INPUT /usr/share/texlive/texmf-dist/tex/latex/psnfss/upzd.fd
INPUT /usr/share/texlive/texmf-dist/fonts/tfm/adobe/zapfding/pzdr.tfm
INPUT /usr/share/texlive/texmf-dist/tex/latex/psnfss/upsy.fd
INPUT /usr/share/texlive/texmf-dist/tex/latex/psnfss/upsy.fd
INPUT /usr/share/texlive/texmf-dist/fonts/tfm/adobe/symbol/psyr.tfm
INPUT /usr/share/texlive/texmf-dist/tex/latex/tools/multicol.sty
INPUT /usr/share/texlive/texmf-dist/tex/latex/tools/multicol.sty
INPUT /usr/share/texlive/texmf-dist/tex/latex/abntex2/abntex2cite.sty
INPUT /usr/share/texlive/texmf-dist/tex/latex/abntex2/abntex2cite.sty
INPUT /usr/share/texlive/texmf-dist/tex/latex/abntex2/abntex2abrev.sty
INPUT /usr/share/texlive/texmf-dist/tex/latex/abntex2/abntex2abrev.sty
INPUT /usr/share/texlive/texmf-dist/tex/latex/relsize/relsize.sty
INPUT /usr/share/texlive/texmf-dist/tex/latex/relsize/relsize.sty
INPUT /usr/share/texlive/texmf-dist/tex/latex/relsize/relsize.sty
INPUT /home/daniel/Documents/TFG PARTE ESCRITA/a-cloud-iot-ovitrap-system-monografia/monografia/monografia.aux
INPUT /home/daniel/Documents/TFG PARTE ESCRITA/a-cloud-iot-ovitrap-system-monografia/monografia/monografia.aux
OUTPUT /home/daniel/Documents/TFG PARTE ESCRITA/a-cloud-iot-ovitrap-system-monografia/monografia/monografia.aux
INPUT /usr/share/texlive/texmf-dist/tex/latex/hyperref/nameref.sty
INPUT /usr/share/texlive/texmf-dist/tex/latex/hyperref/nameref.sty
INPUT /usr/share/texlive/texmf-dist/tex/generic/oberdiek/gettitlestring.sty
INPUT /usr/share/texlive/texmf-dist/tex/generic/oberdiek/gettitlestring.sty
OUTPUT /home/daniel/Documents/TFG PARTE ESCRITA/a-cloud-iot-ovitrap-system-monografia/monografia/monografia.pdf
INPUT /usr/share/texlive/texmf-dist/tex/context/base/mkii/supp-pdf.mkii
INPUT /usr/share/texlive/texmf-dist/tex/context/base/mkii/supp-pdf.mkii
INPUT /usr/share/texlive/texmf-dist/tex/latex/oberdiek/epstopdf-base.sty
INPUT /usr/share/texlive/texmf-dist/tex/latex/oberdiek/epstopdf-base.sty
INPUT /usr/share/texlive/texmf-dist/tex/latex/oberdiek/grfext.sty
INPUT /usr/share/texlive/texmf-dist/tex/latex/oberdiek/grfext.sty
INPUT /usr/share/texlive/texmf-dist/tex/latex/latexconfig/epstopdf-sys.cfg
INPUT /usr/share/texlive/texmf-dist/tex/latex/latexconfig/epstopdf-sys.cfg
INPUT /usr/share/texlive/texmf-dist/tex/latex/microtype/mt-ptm.cfg
INPUT /usr/share/texlive/texmf-dist/tex/latex/microtype/mt-ptm.cfg
INPUT /usr/share/texlive/texmf-dist/tex/latex/caption/ltcaption.sty
INPUT /usr/share/texlive/texmf-dist/tex/latex/caption/ltcaption.sty
INPUT /home/daniel/Documents/TFG PARTE ESCRITA/a-cloud-iot-ovitrap-system-monografia/monografia/capa_folha_rosto.pdf
INPUT /home/daniel/Documents/TFG PARTE ESCRITA/a-cloud-iot-ovitrap-system-monografia/monografia/capa_folha_rosto.pdf
INPUT /home/daniel/Documents/TFG PARTE ESCRITA/a-cloud-iot-ovitrap-system-monografia/monografia/capa_folha_rosto.pdf
INPUT /home/daniel/Documents/TFG PARTE ESCRITA/a-cloud-iot-ovitrap-system-monografia/monografia/capa_folha_rosto.pdf
INPUT /home/daniel/Documents/TFG PARTE ESCRITA/a-cloud-iot-ovitrap-system-monografia/monografia/capa_folha_rosto.pdf
INPUT /home/daniel/Documents/TFG PARTE ESCRITA/a-cloud-iot-ovitrap-system-monografia/monografia/capa_folha_rosto.pdf
INPUT /home/daniel/Documents/TFG PARTE ESCRITA/a-cloud-iot-ovitrap-system-monografia/monografia/capa_folha_rosto.pdf
INPUT /home/daniel/Documents/TFG PARTE ESCRITA/a-cloud-iot-ovitrap-system-monografia/monografia/capa_folha_rosto.pdf
INPUT /home/daniel/Documents/TFG PARTE ESCRITA/a-cloud-iot-ovitrap-system-monografia/monografia/capa_folha_rosto.pdf
INPUT /home/daniel/Documents/TFG PARTE ESCRITA/a-cloud-iot-ovitrap-system-monografia/monografia/capa_folha_rosto.pdf
INPUT /home/daniel/Documents/TFG PARTE ESCRITA/a-cloud-iot-ovitrap-system-monografia/monografia/capa_folha_rosto.pdf
INPUT /home/daniel/Documents/TFG PARTE ESCRITA/a-cloud-iot-ovitrap-system-monografia/monografia/capa_folha_rosto.pdf
INPUT /home/daniel/Documents/TFG PARTE ESCRITA/a-cloud-iot-ovitrap-system-monografia/monografia/capa_folha_rosto.pdf
INPUT /home/daniel/Documents/TFG PARTE ESCRITA/a-cloud-iot-ovitrap-system-monografia/monografia/capa_folha_rosto.pdf
INPUT /home/daniel/Documents/TFG PARTE ESCRITA/a-cloud-iot-ovitrap-system-monografia/monografia/capa_folha_rosto.pdf
INPUT /home/daniel/Documents/TFG PARTE ESCRITA/a-cloud-iot-ovitrap-system-monografia/monografia/capa_folha_rosto.pdf
INPUT /home/daniel/Documents/TFG PARTE ESCRITA/a-cloud-iot-ovitrap-system-monografia/monografia/capa_folha_rosto.pdf
INPUT /home/daniel/Documents/TFG PARTE ESCRITA/a-cloud-iot-ovitrap-system-monografia/monografia/capa_folha_rosto.pdf
INPUT /home/daniel/Documents/TFG PARTE ESCRITA/a-cloud-iot-ovitrap-system-monografia/monografia/capa_folha_rosto.pdf
INPUT /home/daniel/Documents/TFG PARTE ESCRITA/a-cloud-iot-ovitrap-system-monografia/monografia/capa_folha_rosto.pdf
INPUT /home/daniel/Documents/TFG PARTE ESCRITA/a-cloud-iot-ovitrap-system-monografia/monografia/capa_folha_rosto.pdf
INPUT /home/daniel/Documents/TFG PARTE ESCRITA/a-cloud-iot-ovitrap-system-monografia/monografia/capa_folha_rosto.pdf
INPUT /home/daniel/Documents/TFG PARTE ESCRITA/a-cloud-iot-ovitrap-system-monografia/monografia/capa_folha_rosto.pdf
INPUT /home/daniel/Documents/TFG PARTE ESCRITA/a-cloud-iot-ovitrap-system-monografia/monografia/capa_folha_rosto.pdf
INPUT /home/daniel/Documents/TFG PARTE ESCRITA/a-cloud-iot-ovitrap-system-monografia/monografia/capa_folha_rosto.pdf
INPUT /home/daniel/Documents/TFG PARTE ESCRITA/a-cloud-iot-ovitrap-system-monografia/monografia/capa_folha_rosto.pdf
INPUT /usr/share/texmf/fonts/tfm/public/tex-gyre/ec-qtmri.tfm
INPUT /var/lib/texmf/fonts/map/pdftex/updmap/pdftex.map
INPUT /usr/share/texmf/fonts/tfm/public/tex-gyre/ec-qtmr.tfm
INPUT /usr/share/texmf/fonts/tfm/public/tex-gyre/ec-qtmb.tfm
INPUT /usr/share/texmf/fonts/tfm/public/tex-gyre/ec-qtmb.tfm
INPUT /home/daniel/Documents/TFG PARTE ESCRITA/a-cloud-iot-ovitrap-system-monografia/monografia/monografia.lof
INPUT /home/daniel/Documents/TFG PARTE ESCRITA/a-cloud-iot-ovitrap-system-monografia/monografia/monografia.lof
INPUT /usr/share/texlive/texmf-dist/tex/latex/microtype/mt-cmr.cfg
INPUT /usr/share/texlive/texmf-dist/tex/latex/microtype/mt-cmr.cfg
INPUT /usr/share/texlive/texmf-dist/fonts/tfm/public/cm/cmr8.tfm
INPUT /usr/share/texlive/texmf-dist/fonts/tfm/public/cm/cmr6.tfm
INPUT /usr/share/texlive/texmf-dist/fonts/tfm/public/cm/cmmi12.tfm
INPUT /usr/share/texlive/texmf-dist/fonts/tfm/public/cm/cmmi8.tfm
INPUT /usr/share/texlive/texmf-dist/fonts/tfm/public/cm/cmmi6.tfm
INPUT /usr/share/texlive/texmf-dist/fonts/tfm/public/cm/cmsy10.tfm
INPUT /usr/share/texlive/texmf-dist/fonts/tfm/public/cm/cmsy8.tfm
INPUT /usr/share/texlive/texmf-dist/fonts/tfm/public/cm/cmsy6.tfm
INPUT /usr/share/texlive/texmf-dist/fonts/tfm/public/cm/cmex10.tfm
INPUT /usr/share/texlive/texmf-dist/fonts/tfm/public/amsfonts/cmextra/cmex8.tfm
INPUT /usr/share/texlive/texmf-dist/fonts/tfm/public/amsfonts/cmextra/cmex7.tfm
INPUT /usr/share/texlive/texmf-dist/tex/latex/amsfonts/umsa.fd
INPUT /usr/share/texlive/texmf-dist/tex/latex/amsfonts/umsa.fd
INPUT /usr/share/texlive/texmf-dist/fonts/tfm/public/amsfonts/symbols/msam10.tfm
INPUT /usr/share/texlive/texmf-dist/tex/latex/microtype/mt-msa.cfg
INPUT /usr/share/texlive/texmf-dist/tex/latex/microtype/mt-msa.cfg
INPUT /usr/share/texlive/texmf-dist/fonts/tfm/public/amsfonts/symbols/msam10.tfm
INPUT /usr/share/texlive/texmf-dist/fonts/tfm/public/amsfonts/symbols/msam7.tfm
INPUT /usr/share/texlive/texmf-dist/tex/latex/amsfonts/umsb.fd
INPUT /usr/share/texlive/texmf-dist/tex/latex/amsfonts/umsb.fd
INPUT /usr/share/texlive/texmf-dist/fonts/tfm/public/amsfonts/symbols/msbm10.tfm
INPUT /usr/share/texlive/texmf-dist/tex/latex/microtype/mt-msb.cfg
INPUT /usr/share/texlive/texmf-dist/tex/latex/microtype/mt-msb.cfg
INPUT /usr/share/texlive/texmf-dist/fonts/tfm/public/amsfonts/symbols/msbm10.tfm
INPUT /usr/share/texlive/texmf-dist/fonts/tfm/public/amsfonts/symbols/msbm7.tfm
INPUT /home/daniel/Documents/TFG PARTE ESCRITA/a-cloud-iot-ovitrap-system-monografia/monografia/monografia.lot
INPUT /home/daniel/Documents/TFG PARTE ESCRITA/a-cloud-iot-ovitrap-system-monografia/monografia/monografia.lot
INPUT /home/daniel/Documents/TFG PARTE ESCRITA/a-cloud-iot-ovitrap-system-monografia/monografia/monografia.toc
INPUT /home/daniel/Documents/TFG PARTE ESCRITA/a-cloud-iot-ovitrap-system-monografia/monografia/monografia.toc
INPUT /usr/share/texlive/texmf-dist/fonts/tfm/public/cm/cmmi10.tfm
INPUT /usr/share/texlive/texmf-dist/fonts/tfm/public/cm/cmsy10.tfm
INPUT /usr/share/texlive/texmf-dist/fonts/tfm/public/cm/cmex10.tfm
INPUT /usr/share/texlive/texmf-dist/fonts/tfm/public/amsfonts/symbols/msam10.tfm
INPUT /usr/share/texlive/texmf-dist/fonts/tfm/public/amsfonts/symbols/msbm10.tfm
INPUT /usr/share/texmf/fonts/tfm/public/tex-gyre/ec-qtmr.tfm
INPUT /usr/share/texmf/fonts/tfm/public/tex-gyre/ec-qtmri.tfm
INPUT /home/daniel/Documents/TFG PARTE ESCRITA/a-cloud-iot-ovitrap-system-monografia/monografia/imagens/ovitrapLoki.jpeg
INPUT /home/daniel/Documents/TFG PARTE ESCRITA/a-cloud-iot-ovitrap-system-monografia/monografia/imagens/ovitrapLoki.jpeg
INPUT /home/daniel/Documents/TFG PARTE ESCRITA/a-cloud-iot-ovitrap-system-monografia/monografia/imagens/ovitrapLoki.jpeg
INPUT /home/daniel/Documents/TFG PARTE ESCRITA/a-cloud-iot-ovitrap-system-monografia/monografia/imagens/exemplosovitraps.png
INPUT /home/daniel/Documents/TFG PARTE ESCRITA/a-cloud-iot-ovitrap-system-monografia/monografia/imagens/exemplosovitraps.png
INPUT /home/daniel/Documents/TFG PARTE ESCRITA/a-cloud-iot-ovitrap-system-monografia/monografia/imagens/exemplosovitraps.png
INPUT /home/daniel/Documents/TFG PARTE ESCRITA/a-cloud-iot-ovitrap-system-monografia/monografia/imagens/smartovitrap.png
INPUT /home/daniel/Documents/TFG PARTE ESCRITA/a-cloud-iot-ovitrap-system-monografia/monografia/imagens/smartovitrap.png
INPUT /home/daniel/Documents/TFG PARTE ESCRITA/a-cloud-iot-ovitrap-system-monografia/monografia/imagens/smartovitrap.png
INPUT /home/daniel/Documents/TFG PARTE ESCRITA/a-cloud-iot-ovitrap-system-monografia/monografia/imagens/smartovitrap2.png
INPUT /home/daniel/Documents/TFG PARTE ESCRITA/a-cloud-iot-ovitrap-system-monografia/monografia/imagens/smartovitrap2.png
INPUT /home/daniel/Documents/TFG PARTE ESCRITA/a-cloud-iot-ovitrap-system-monografia/monografia/imagens/smartovitrap2.png
INPUT /home/daniel/Documents/TFG PARTE ESCRITA/a-cloud-iot-ovitrap-system-monografia/monografia/imagens/IMG_8989.jpg
INPUT /home/daniel/Documents/TFG PARTE ESCRITA/a-cloud-iot-ovitrap-system-monografia/monografia/imagens/IMG_8989.jpg
INPUT /home/daniel/Documents/TFG PARTE ESCRITA/a-cloud-iot-ovitrap-system-monografia/monografia/imagens/IMG_8989.jpg
INPUT /home/daniel/Documents/TFG PARTE ESCRITA/a-cloud-iot-ovitrap-system-monografia/monografia/imagens/larvasMosquitos.png
INPUT /home/daniel/Documents/TFG PARTE ESCRITA/a-cloud-iot-ovitrap-system-monografia/monografia/imagens/larvasMosquitos.png
INPUT /home/daniel/Documents/TFG PARTE ESCRITA/a-cloud-iot-ovitrap-system-monografia/monografia/imagens/larvasMosquitos.png
INPUT /home/daniel/Documents/TFG PARTE ESCRITA/a-cloud-iot-ovitrap-system-monografia/monografia/imagens/fotoESP32.jpeg
INPUT /home/daniel/Documents/TFG PARTE ESCRITA/a-cloud-iot-ovitrap-system-monografia/monografia/imagens/fotoESP32.jpeg
INPUT /home/daniel/Documents/TFG PARTE ESCRITA/a-cloud-iot-ovitrap-system-monografia/monografia/imagens/fotoESP32.jpeg
INPUT /home/daniel/Documents/TFG PARTE ESCRITA/a-cloud-iot-ovitrap-system-monografia/monografia/imagens/tileshop.jpeg
INPUT /home/daniel/Documents/TFG PARTE ESCRITA/a-cloud-iot-ovitrap-system-monografia/monografia/imagens/tileshop.jpeg
INPUT /home/daniel/Documents/TFG PARTE ESCRITA/a-cloud-iot-ovitrap-system-monografia/monografia/imagens/tileshop.jpeg
INPUT /home/daniel/Documents/TFG PARTE ESCRITA/a-cloud-iot-ovitrap-system-monografia/monografia/imagens/prototipo1_2.jpg
INPUT /home/daniel/Documents/TFG PARTE ESCRITA/a-cloud-iot-ovitrap-system-monografia/monografia/imagens/prototipo1_2.jpg
INPUT /home/daniel/Documents/TFG PARTE ESCRITA/a-cloud-iot-ovitrap-system-monografia/monografia/imagens/prototipo1_2.jpg
INPUT /home/daniel/Documents/TFG PARTE ESCRITA/a-cloud-iot-ovitrap-system-monografia/monografia/imagens/IMG_0598.jpg
INPUT /home/daniel/Documents/TFG PARTE ESCRITA/a-cloud-iot-ovitrap-system-monografia/monografia/imagens/IMG_0598.jpg
INPUT /home/daniel/Documents/TFG PARTE ESCRITA/a-cloud-iot-ovitrap-system-monografia/monografia/imagens/IMG_0598.jpg
INPUT /home/daniel/Documents/TFG PARTE ESCRITA/a-cloud-iot-ovitrap-system-monografia/monografia/imagens/IMG_0600.jpg
INPUT /home/daniel/Documents/TFG PARTE ESCRITA/a-cloud-iot-ovitrap-system-monografia/monografia/imagens/IMG_0600.jpg
INPUT /home/daniel/Documents/TFG PARTE ESCRITA/a-cloud-iot-ovitrap-system-monografia/monografia/imagens/IMG_0600.jpg
INPUT /home/daniel/Documents/TFG PARTE ESCRITA/a-cloud-iot-ovitrap-system-monografia/monografia/imagens/IMG_0599.jpg
INPUT /home/daniel/Documents/TFG PARTE ESCRITA/a-cloud-iot-ovitrap-system-monografia/monografia/imagens/IMG_0599.jpg
INPUT /home/daniel/Documents/TFG PARTE ESCRITA/a-cloud-iot-ovitrap-system-monografia/monografia/imagens/IMG_0599.jpg
INPUT /home/daniel/Documents/TFG PARTE ESCRITA/a-cloud-iot-ovitrap-system-monografia/monografia/imagens/IMG_0597.jpg
INPUT /home/daniel/Documents/TFG PARTE ESCRITA/a-cloud-iot-ovitrap-system-monografia/monografia/imagens/IMG_0597.jpg
INPUT /home/daniel/Documents/TFG PARTE ESCRITA/a-cloud-iot-ovitrap-system-monografia/monografia/imagens/IMG_0597.jpg
INPUT /home/daniel/Documents/TFG PARTE ESCRITA/a-cloud-iot-ovitrap-system-monografia/monografia/imagens/IMG_0603.jpg
INPUT /home/daniel/Documents/TFG PARTE ESCRITA/a-cloud-iot-ovitrap-system-monografia/monografia/imagens/IMG_0603.jpg
INPUT /home/daniel/Documents/TFG PARTE ESCRITA/a-cloud-iot-ovitrap-system-monografia/monografia/imagens/IMG_0603.jpg
INPUT /home/daniel/Documents/TFG PARTE ESCRITA/a-cloud-iot-ovitrap-system-monografia/monografia/imagens/IMG_0602.jpg
INPUT /home/daniel/Documents/TFG PARTE ESCRITA/a-cloud-iot-ovitrap-system-monografia/monografia/imagens/IMG_0602.jpg
INPUT /home/daniel/Documents/TFG PARTE ESCRITA/a-cloud-iot-ovitrap-system-monografia/monografia/imagens/IMG_0602.jpg
INPUT /home/daniel/Documents/TFG PARTE ESCRITA/a-cloud-iot-ovitrap-system-monografia/monografia/imagens/IMG_0610.jpg
INPUT /home/daniel/Documents/TFG PARTE ESCRITA/a-cloud-iot-ovitrap-system-monografia/monografia/imagens/IMG_0610.jpg
INPUT /home/daniel/Documents/TFG PARTE ESCRITA/a-cloud-iot-ovitrap-system-monografia/monografia/imagens/IMG_0610.jpg
INPUT /home/daniel/Documents/TFG PARTE ESCRITA/a-cloud-iot-ovitrap-system-monografia/monografia/imagens/IMG_0601.jpg
INPUT /home/daniel/Documents/TFG PARTE ESCRITA/a-cloud-iot-ovitrap-system-monografia/monografia/imagens/IMG_0601.jpg
INPUT /home/daniel/Documents/TFG PARTE ESCRITA/a-cloud-iot-ovitrap-system-monografia/monografia/imagens/IMG_0601.jpg
INPUT /home/daniel/Documents/TFG PARTE ESCRITA/a-cloud-iot-ovitrap-system-monografia/monografia/imagens/IMG_0604.jpg
INPUT /home/daniel/Documents/TFG PARTE ESCRITA/a-cloud-iot-ovitrap-system-monografia/monografia/imagens/IMG_0604.jpg
INPUT /home/daniel/Documents/TFG PARTE ESCRITA/a-cloud-iot-ovitrap-system-monografia/monografia/imagens/IMG_0604.jpg
INPUT /home/daniel/Documents/TFG PARTE ESCRITA/a-cloud-iot-ovitrap-system-monografia/monografia/imagens/IMG_0606.jpg
INPUT /home/daniel/Documents/TFG PARTE ESCRITA/a-cloud-iot-ovitrap-system-monografia/monografia/imagens/IMG_0606.jpg
INPUT /home/daniel/Documents/TFG PARTE ESCRITA/a-cloud-iot-ovitrap-system-monografia/monografia/imagens/IMG_0606.jpg
INPUT /home/daniel/Documents/TFG PARTE ESCRITA/a-cloud-iot-ovitrap-system-monografia/monografia/imagens/EsquemaHardware.png
INPUT /home/daniel/Documents/TFG PARTE ESCRITA/a-cloud-iot-ovitrap-system-monografia/monografia/imagens/EsquemaHardware.png
INPUT /home/daniel/Documents/TFG PARTE ESCRITA/a-cloud-iot-ovitrap-system-monografia/monografia/imagens/EsquemaHardware.png
INPUT /home/daniel/Documents/TFG PARTE ESCRITA/a-cloud-iot-ovitrap-system-monografia/monografia/imagens/nodemcu.png
INPUT /home/daniel/Documents/TFG PARTE ESCRITA/a-cloud-iot-ovitrap-system-monografia/monografia/imagens/nodemcu.png
INPUT /home/daniel/Documents/TFG PARTE ESCRITA/a-cloud-iot-ovitrap-system-monografia/monografia/imagens/nodemcu.png
INPUT /home/daniel/Documents/TFG PARTE ESCRITA/a-cloud-iot-ovitrap-system-monografia/monografia/imagens/gy-vl53l0x.jpg
INPUT /home/daniel/Documents/TFG PARTE ESCRITA/a-cloud-iot-ovitrap-system-monografia/monografia/imagens/gy-vl53l0x.jpg
INPUT /home/daniel/Documents/TFG PARTE ESCRITA/a-cloud-iot-ovitrap-system-monografia/monografia/imagens/gy-vl53l0x.jpg
INPUT /home/daniel/Documents/TFG PARTE ESCRITA/a-cloud-iot-ovitrap-system-monografia/monografia/imagens/diagramacloud.png
INPUT /home/daniel/Documents/TFG PARTE ESCRITA/a-cloud-iot-ovitrap-system-monografia/monografia/imagens/diagramacloud.png
INPUT /home/daniel/Documents/TFG PARTE ESCRITA/a-cloud-iot-ovitrap-system-monografia/monografia/imagens/diagramacloud.png
INPUT /home/daniel/Documents/TFG PARTE ESCRITA/a-cloud-iot-ovitrap-system-monografia/monografia/imagens/EsquemaBanco.png
INPUT /home/daniel/Documents/TFG PARTE ESCRITA/a-cloud-iot-ovitrap-system-monografia/monografia/imagens/EsquemaBanco.png
INPUT /home/daniel/Documents/TFG PARTE ESCRITA/a-cloud-iot-ovitrap-system-monografia/monografia/imagens/EsquemaBanco.png
INPUT /home/daniel/Documents/TFG PARTE ESCRITA/a-cloud-iot-ovitrap-system-monografia/monografia/imagens/front_1.png
INPUT /home/daniel/Documents/TFG PARTE ESCRITA/a-cloud-iot-ovitrap-system-monografia/monografia/imagens/front_1.png
INPUT /home/daniel/Documents/TFG PARTE ESCRITA/a-cloud-iot-ovitrap-system-monografia/monografia/imagens/front_1.png
INPUT /home/daniel/Documents/TFG PARTE ESCRITA/a-cloud-iot-ovitrap-system-monografia/monografia/imagens/front_2.png
INPUT /home/daniel/Documents/TFG PARTE ESCRITA/a-cloud-iot-ovitrap-system-monografia/monografia/imagens/front_2.png
INPUT /home/daniel/Documents/TFG PARTE ESCRITA/a-cloud-iot-ovitrap-system-monografia/monografia/imagens/front_2.png
INPUT /home/daniel/Documents/TFG PARTE ESCRITA/a-cloud-iot-ovitrap-system-monografia/monografia/imagens/front_5.png
INPUT /home/daniel/Documents/TFG PARTE ESCRITA/a-cloud-iot-ovitrap-system-monografia/monografia/imagens/front_5.png
INPUT /home/daniel/Documents/TFG PARTE ESCRITA/a-cloud-iot-ovitrap-system-monografia/monografia/imagens/front_5.png
INPUT /home/daniel/Documents/TFG PARTE ESCRITA/a-cloud-iot-ovitrap-system-monografia/monografia/imagens/front_4.png
INPUT /home/daniel/Documents/TFG PARTE ESCRITA/a-cloud-iot-ovitrap-system-monografia/monografia/imagens/front_4.png
INPUT /home/daniel/Documents/TFG PARTE ESCRITA/a-cloud-iot-ovitrap-system-monografia/monografia/imagens/front_4.png
INPUT /home/daniel/Documents/TFG PARTE ESCRITA/a-cloud-iot-ovitrap-system-monografia/monografia/imagens/front_3.png
INPUT /home/daniel/Documents/TFG PARTE ESCRITA/a-cloud-iot-ovitrap-system-monografia/monografia/imagens/front_3.png
INPUT /home/daniel/Documents/TFG PARTE ESCRITA/a-cloud-iot-ovitrap-system-monografia/monografia/imagens/front_3.png
INPUT /home/daniel/Documents/TFG PARTE ESCRITA/a-cloud-iot-ovitrap-system-monografia/monografia/imagens/diagramacloudarmadilha.png
INPUT /home/daniel/Documents/TFG PARTE ESCRITA/a-cloud-iot-ovitrap-system-monografia/monografia/imagens/diagramacloudarmadilha.png
INPUT /home/daniel/Documents/TFG PARTE ESCRITA/a-cloud-iot-ovitrap-system-monografia/monografia/imagens/diagramacloudarmadilha.png
INPUT /home/daniel/Documents/TFG PARTE ESCRITA/a-cloud-iot-ovitrap-system-monografia/monografia/imagens/IMG_0609.jpg
INPUT /home/daniel/Documents/TFG PARTE ESCRITA/a-cloud-iot-ovitrap-system-monografia/monografia/imagens/IMG_0609.jpg
INPUT /home/daniel/Documents/TFG PARTE ESCRITA/a-cloud-iot-ovitrap-system-monografia/monografia/imagens/IMG_0609.jpg
INPUT /home/daniel/Documents/TFG PARTE ESCRITA/a-cloud-iot-ovitrap-system-monografia/monografia/monografia.bbl
INPUT /home/daniel/Documents/TFG PARTE ESCRITA/a-cloud-iot-ovitrap-system-monografia/monografia/monografia.bbl
INPUT /home/daniel/Documents/TFG PARTE ESCRITA/a-cloud-iot-ovitrap-system-monografia/monografia/docreq.tex
INPUT /home/daniel/Documents/TFG PARTE ESCRITA/a-cloud-iot-ovitrap-system-monografia/monografia/docreq.tex
INPUT /usr/share/texmf/fonts/tfm/public/tex-gyre/ec-qtmb.tfm
INPUT /usr/share/texmf/fonts/tfm/public/tex-gyre/ec-qtmb.tfm
INPUT /home/daniel/Documents/TFG PARTE ESCRITA/a-cloud-iot-ovitrap-system-monografia/monografia/imagens/DiagramaPlataforma.png
INPUT /home/daniel/Documents/TFG PARTE ESCRITA/a-cloud-iot-ovitrap-system-monografia/monografia/imagens/DiagramaPlataforma.png
INPUT /home/daniel/Documents/TFG PARTE ESCRITA/a-cloud-iot-ovitrap-system-monografia/monografia/imagens/DiagramaPlataforma.png
INPUT /home/daniel/Documents/TFG PARTE ESCRITA/a-cloud-iot-ovitrap-system-monografia/monografia/imagens/casosDeUso.png
INPUT /home/daniel/Documents/TFG PARTE ESCRITA/a-cloud-iot-ovitrap-system-monografia/monografia/imagens/casosDeUso.png
INPUT /home/daniel/Documents/TFG PARTE ESCRITA/a-cloud-iot-ovitrap-system-monografia/monografia/imagens/casosDeUso.png
INPUT /usr/share/texmf/fonts/tfm/public/tex-gyre/ec-qtmr.tfm
INPUT /usr/share/texlive/texmf-dist/fonts/tfm/adobe/zapfding/pzdr.tfm
OUTPUT /home/daniel/Documents/TFG PARTE ESCRITA/a-cloud-iot-ovitrap-system-monografia/monografia/monografia.lof
OUTPUT /home/daniel/Documents/TFG PARTE ESCRITA/a-cloud-iot-ovitrap-system-monografia/monografia/monografia.lot
OUTPUT /home/daniel/Documents/TFG PARTE ESCRITA/a-cloud-iot-ovitrap-system-monografia/monografia/monografia.toc
INPUT /home/daniel/Documents/TFG PARTE ESCRITA/a-cloud-iot-ovitrap-system-monografia/monografia/monografia.aux
INPUT /usr/share/texmf/fonts/enc/dvips/tex-gyre/q-ec.enc
INPUT /usr/share/texlive/texmf-dist/fonts/type1/public/amsfonts/cm/cmmi12.pfb
INPUT /usr/share/texlive/texmf-dist/fonts/type1/public/amsfonts/cm/cmr8.pfb
INPUT /usr/share/texlive/texmf-dist/fonts/type1/public/amsfonts/cm/cmsy10.pfb
INPUT /usr/share/texlive/texmf-dist/fonts/type1/public/amsfonts/symbols/msam10.pfb
INPUT /usr/share/texmf/fonts/type1/public/tex-gyre/qtmb.pfb
INPUT /usr/share/texmf/fonts/type1/public/tex-gyre/qtmr.pfb
INPUT /usr/share/texmf/fonts/type1/public/tex-gyre/qtmri.pfb
INPUT /usr/share/texlive/texmf-dist/fonts/type1/urw/zapfding/uzdr.pfb
